<svg xmlns="http://www.w3.org/2000/svg" xmlns:xlink="http://www.w3.org/1999/xlink" width="39" height="39" viewBox="0 0 39 39">
  <defs>
    <clipPath id="clip-path">
      <rect id="Rectangle_10777" data-name="Rectangle 10777" width="39" height="39" transform="translate(13603 6743)" fill="none" stroke="#707070" stroke-width="1"/>
    </clipPath>
  </defs>
  <g id="Mask_Group_152" data-name="Mask Group 152" transform="translate(-13603 -6743)" clip-path="url(#clip-path)">
    <g id="Group_17126" data-name="Group 17126" transform="translate(13608 6747.337)">
      <circle id="Ellipse_1454" data-name="Ellipse 1454" cx="12" cy="12" r="12" transform="translate(4.987 6.663)" fill="#b3e06a"/>
      <g id="Icon_feather-globe" data-name="Icon feather-globe" transform="translate(0 0)">
        <path id="Path_30438" data-name="Path 30438" d="M31.062,17.031A14.031,14.031,0,1,1,17.031,3,14.031,14.031,0,0,1,31.062,17.031Z" transform="translate(-3 -3)" fill="none" stroke="#414141" stroke-linecap="round" stroke-linejoin="round" stroke-width="1.5"/>
        <path id="Path_30439" data-name="Path 30439" d="M3,18H31.062" transform="translate(-3 -3.969)" fill="none" stroke="#414141" stroke-linecap="round" stroke-linejoin="round" stroke-width="1.5"/>
        <path id="Path_30440" data-name="Path 30440" d="M17.612,3a21.467,21.467,0,0,1,5.612,14.031,21.467,21.467,0,0,1-5.612,14.031A21.467,21.467,0,0,1,12,17.031,21.467,21.467,0,0,1,17.612,3Z" transform="translate(-3.581 -3)" fill="none" stroke="#414141" stroke-linecap="round" stroke-linejoin="round" stroke-width="1.5"/>
      </g>
    </g>
  </g>
</svg>
