<svg xmlns="http://www.w3.org/2000/svg" xmlns:xlink="http://www.w3.org/1999/xlink" width="39" height="39" viewBox="0 0 39 39">
  <defs>
    <clipPath id="clip-path">
      <rect id="Rectangle_10779" data-name="Rectangle 10779" width="39" height="39" transform="translate(13603 6879)" fill="none" stroke="#707070" stroke-width="1"/>
    </clipPath>
  </defs>
  <g id="Mask_Group_154" data-name="Mask Group 154" transform="translate(-13603 -6879)" clip-path="url(#clip-path)">
    <g id="Group_17128" data-name="Group 17128" transform="translate(13605 6881.251)">
      <circle id="Ellipse_1456" data-name="Ellipse 1456" cx="11" cy="11" r="11" transform="translate(1.316 12.749)" fill="#b3e06a"/>
      <g id="contact-form" transform="translate(0 0)">
        <path id="Path_30420" data-name="Path 30420" d="M31.5-511.751a3.306,3.306,0,0,0-1.469.8,40.205,40.205,0,0,0-2.312,3.788l-2,3.468-4.311.034c-4.223.034-4.318.034-4.5.177a.642.642,0,0,0-.061,1.02l.163.163h3.917c2.509,0,3.91.027,3.91.068s-.619,1.136-1.374,2.448l-1.374,2.38L14-497.4l-8.085.02-.2.224a.766.766,0,0,0-.2.394.872.872,0,0,0,.333.639c.088.048,2.659.068,7.752.068,4.413,0,7.623.027,7.623.061s-.333.639-.741,1.34l-.741,1.285-6.916.034-6.916.034-.2.224a.766.766,0,0,0-.2.394.872.872,0,0,0,.333.639q.133.071,6.834.068h6.7v.238c0,.258-.19,2.081-.245,2.326l-.027.156-6.6.014-6.6.02-.2.224a.766.766,0,0,0-.2.394.872.872,0,0,0,.333.639c.088.048,2.305.068,6.63.068h6.5v.347a.606.606,0,0,0,.2.544c.292.292.571.265,1.088-.1.224-.156,1.265-.9,2.305-1.666a10.625,10.625,0,0,0,2.06-1.666c.1-.156,1.306-2.244,2.686-4.638l2.509-4.352.02,6.7c.02,7.494.041,7.167-.462,7.943a2.635,2.635,0,0,1-1.2,1.02l-.394.184-8.33.034c-6.4.027-8.364.054-8.473.116a21.482,21.482,0,0,0-1.36,2.2c-.673,1.156-1.231,2.108-1.251,2.108s-.578-.952-1.251-2.108a11.713,11.713,0,0,0-1.394-2.2,4.4,4.4,0,0,0-1.2-.122,2.964,2.964,0,0,1-1.421-.211,2.737,2.737,0,0,1-1.544-1.754c-.122-.394-.129-.728-.129-7.358,0-4.338.027-7.058.068-7.242a2.835,2.835,0,0,1,2.278-2.122c.231-.041,1.986-.068,4.032-.068h3.631l.2-.2a.6.6,0,0,0,0-.9l-.2-.224H3.517l-.551.184a4.308,4.308,0,0,0-2.7,2.706l-.15.442L.1-493.112c-.02,8.01-.034,7.718.442,8.684a3.731,3.731,0,0,0,.734,1,4.071,4.071,0,0,0,3.087,1.251h.653l1.36,2.36c.748,1.3,1.442,2.455,1.537,2.57a.513.513,0,0,0,.469.2.5.5,0,0,0,.469-.211c.1-.109.789-1.265,1.537-2.564l1.36-2.36h7.929c7.7,0,7.942-.007,8.459-.136a4.178,4.178,0,0,0,3-3.121c.082-.422.1-1.516.082-7.677l-.02-7.188-.156-.462-.156-.462,1.85-3.21c1.02-1.761,1.911-3.352,1.979-3.536a2.856,2.856,0,0,0-2.183-3.788A2.276,2.276,0,0,0,31.5-511.751Zm.932,1.367a1.7,1.7,0,0,1,1.034.972,1.509,1.509,0,0,1-.2,1.3c-.15.286-.279.537-.3.551s-2.468-1.367-2.55-1.448.394-.809.66-1.047A1.326,1.326,0,0,1,32.43-510.384ZM31-507.093c.687.394,1.251.734,1.251.748,0,.041-8.432,14.668-8.493,14.729a14.14,14.14,0,0,1-2.536-1.516c.014-.054,1.816-3.2,4-6.984,4.7-8.14,4.447-7.7,4.488-7.7C29.724-507.814,30.309-507.487,31-507.093Zm-8.861,16.177.6.354-1.095.8a13.383,13.383,0,0,1-1.122.775c-.014-.014.034-.626.116-1.367l.143-1.34.381.218C21.367-491.357,21.809-491.106,22.135-490.915Z" transform="translate(-0.089 511.813)" fill="#414141"/>
        <path id="Path_30421" data-name="Path 30421" d="M198.68-391.378a.647.647,0,0,0-.381.932.6.6,0,0,0,.619.354.663.663,0,0,0,.646-.639A.7.7,0,0,0,198.68-391.378Z" transform="translate(-184.746 399.6)" fill="#414141"/>
      </g>
    </g>
  </g>
</svg>
