<svg xmlns="http://www.w3.org/2000/svg" xmlns:xlink="http://www.w3.org/1999/xlink" width="39" height="39" viewBox="0 0 39 39">
  <defs>
    <clipPath id="clip-path">
      <rect id="Rectangle_10778" data-name="Rectangle 10778" width="39" height="39" transform="translate(13603 6808)" fill="none" stroke="#707070" stroke-width="1"/>
    </clipPath>
  </defs>
  <g id="Mask_Group_153" data-name="Mask Group 153" transform="translate(-13603 -6808)" clip-path="url(#clip-path)">
    <g id="Group_17127" data-name="Group 17127" transform="translate(13605 6809.873)">
      <circle id="Ellipse_1455" data-name="Ellipse 1455" cx="7.5" cy="7.5" r="7.5" transform="translate(8.87 0.127)" fill="#b3e06a"/>
      <g id="handshake-_1_" transform="translate(0 0.632)">
        <path id="Path_30441" data-name="Path 30441" d="M246.553-507.773a.7.7,0,0,0,.342,1.3.739.739,0,0,0,.7-.691A.7.7,0,0,0,246.553-507.773Z" transform="translate(-229.031 507.862)" fill="#414141"/>
        <path id="Path_30442" data-name="Path 30442" d="M123.623-479.737a.732.732,0,0,0-.412.775c.056.223,4.818,5.056,5.153,5.237a.6.6,0,0,0,.747-.084.647.647,0,0,0,.161-.88c-.223-.356-4.909-5-5.132-5.076C123.9-479.856,123.9-479.856,123.623-479.737Z" transform="translate(-114.606 481.787)" fill="#414141"/>
        <path id="Path_30443" data-name="Path 30443" d="M305.268-479.75c-.237.119-4.685,4.518-5,4.944a.6.6,0,0,0,.035.922.6.6,0,0,0,.8.14c.335-.182,5.1-5.014,5.153-5.237a.733.733,0,0,0-.426-.782C305.533-479.882,305.526-479.882,305.268-479.75Z" transform="translate(-279.13 481.807)" fill="#414141"/>
        <path id="Path_30444" data-name="Path 30444" d="M246.447-467.62a.991.991,0,0,0-.3.258c-.14.182-.147.244-.147,2.346,0,2.339.014,2.458.384,2.625a.668.668,0,0,0,.628,0c.37-.168.384-.286.384-2.632v-2.172l-.189-.209A.717.717,0,0,0,246.447-467.62Z" transform="translate(-228.835 470.466)" fill="#414141"/>
        <path id="Path_30445" data-name="Path 30445" d="M7.171-408.631c-.244.126-6.9,8.414-6.969,8.686a.585.585,0,0,0,.014.412,23.411,23.411,0,0,0,1.864,1.7l1.788,1.536L5.4-394.226c.838,1.138,1.529,2.088,1.529,2.116a1.988,1.988,0,0,1-.209.363A2.477,2.477,0,0,0,7-388.709a2.625,2.625,0,0,0,1.341.74c.2,0,.2,0,.2.454a2.661,2.661,0,0,0,.147.852,2.594,2.594,0,0,0,2.046,1.557c.258,0,.321.084.321.426a1.737,1.737,0,0,0,.119.5,2.475,2.475,0,0,0,2.283,1.627l.426.014.049.258a2.587,2.587,0,0,0,1.369,1.7,1.815,1.815,0,0,0,1.061.2,1.705,1.705,0,0,0,1.04-.2,4.4,4.4,0,0,0,.705-.51,2.553,2.553,0,0,1,.37-.307,1.812,1.812,0,0,1,.363.237,2.466,2.466,0,0,0,3.24-.168,2.739,2.739,0,0,0,.719-1.4l.07-.4.356-.042a2.511,2.511,0,0,0,2.088-2.074l.07-.4.356-.042a2.5,2.5,0,0,0,2.088-2.081c.063-.384.084-.412.258-.412a2.553,2.553,0,0,0,1.843-1.068,2.438,2.438,0,0,0,.223-2.4l-.168-.363,1.131-2.367,1.138-2.367,1.767-1.522a20.935,20.935,0,0,0,1.829-1.69,1.136,1.136,0,0,0,.063-.335c0-.2-6.04-8.1-6.34-8.3a.6.6,0,0,0-.412-.091,19.109,19.109,0,0,0-2.2,1.292l-1.99,1.264H19.838l-1.934.559c-1.068.307-2,.559-2.074.559s-1.012-.244-2.088-.545l-1.955-.538-2.011-1.278C7.771-408.645,7.478-408.784,7.171-408.631Zm1.8,2.409c.705.447,1.32.852,1.369.9.077.07-.44.74-2.94,3.778-1.662,2.032-3.065,3.694-3.107,3.694a17.731,17.731,0,0,1-2.4-2.1c.126-.2,5.712-7.08,5.754-7.08S8.274-406.669,8.972-406.222Zm22.68,2.514c1.4,1.829,2.549,3.345,2.549,3.373,0,.056-2.346,2.095-2.409,2.1-.021,0-1.278-1.571-2.786-3.5-2.3-2.933-2.73-3.512-2.653-3.589.119-.112,2.66-1.711,2.716-1.711C29.09-407.025,30.249-405.531,31.652-403.708Zm-3.8,2.793c1.648,2.095,2.989,3.827,2.982,3.854-.021.084-1.843,3.889-1.878,3.917s-1.829-1.76-4.029-3.952c-3.91-3.9-4-3.987-4.308-4.029-.175-.021-1.131-.091-2.13-.154-1.62-.112-1.836-.112-2.018-.014a8.262,8.262,0,0,0-1.243,1.948c-.573,1.012-1.1,1.9-1.159,1.976a1.085,1.085,0,0,1-1.69-.182,1.212,1.212,0,0,1-.028-1.054c.063-.126.677-1.222,1.369-2.444l1.257-2.214.363-.1c.2-.056,1.313-.384,2.486-.726l2.13-.621,2.451-.007,2.451-.007Zm-15.3-3.505c.349.091.761.2.929.251s.293.1.293.133-.566,1.054-1.264,2.283c-1.564,2.751-1.578,2.793-1.655,3.268a2.489,2.489,0,0,0,1.327,2.6,1.79,1.79,0,0,0,1.1.2,1.79,1.79,0,0,0,1.1-.2c.607-.321.845-.628,1.857-2.416l.964-1.69.251.035c.147.021.845.077,1.564.119l1.3.084,4.259,4.266c3.792,3.792,4.273,4.3,4.343,4.56a1.063,1.063,0,0,1-1.487,1.236c-.126-.063-1.306-1.208-2.632-2.549L22.4-394.679l-.3.007a.7.7,0,0,0-.684.88,33.341,33.341,0,0,0,2.479,2.639c2.639,2.653,2.66,2.681,2.521,3.275a1.061,1.061,0,0,1-1.487.705,21.632,21.632,0,0,1-1.864-1.781l-1.641-1.676-.321.007a.618.618,0,0,0-.691.684v.314l1.7,1.718c1.417,1.424,1.718,1.767,1.781,2a1.074,1.074,0,0,1-1.3,1.327c-.216-.042-.447-.23-1.313-1.089-.978-.971-1.061-1.04-1.313-1.04a.661.661,0,0,0-.677.88,8.554,8.554,0,0,0,1.047,1.18c1.075,1.089,1.18,1.271,1.04,1.829a1.077,1.077,0,0,1-1.76.5l-.258-.209.126-.223a1.973,1.973,0,0,0,.119-.922,1.814,1.814,0,0,0-.2-1.082,2.476,2.476,0,0,0-1.522-1.285l-.286-.084-.014-.594a2.381,2.381,0,0,0-.635-1.662,2.835,2.835,0,0,0-1.487-.754c-.335-.035-.363-.056-.363-.23a3.059,3.059,0,0,0-.377-1.18,2.922,2.922,0,0,0-1.082-.936,2.1,2.1,0,0,0-.936-.154H12.1l-.077-.279a2.581,2.581,0,0,0-1.5-1.634,2,2,0,0,0-1.006-.133,2.349,2.349,0,0,0-1.411.489c-.1.077-.14.063-.223-.049-.056-.077-.656-.88-1.327-1.781a15.876,15.876,0,0,1-1.208-1.732c.028-.168,6.417-7.9,6.5-7.87C11.891-404.609,12.212-404.518,12.555-404.42Zm-2.332,12.283a1.071,1.071,0,0,1,.384,1.327,4.672,4.672,0,0,1-1.55,1.438,1.021,1.021,0,0,1-1.25-.656c-.2-.517-.112-.74.545-1.417a6.731,6.731,0,0,1,.782-.719A1.086,1.086,0,0,1,10.222-392.138Zm2.9,1.976a1.054,1.054,0,0,1,.552,1.194c-.042.216-.216.44-1.033,1.264a12.788,12.788,0,0,1-1.18,1.1,1.188,1.188,0,0,1-1.019-.042,1.1,1.1,0,0,1-.4-1.383A17.938,17.938,0,0,1,12.24-390.2,1.165,1.165,0,0,1,13.12-390.162Zm2.423,2.5a1.09,1.09,0,0,1,.621,1.285,10.332,10.332,0,0,1-2.4,2.374,1.031,1.031,0,0,1-1.292-.845,1.757,1.757,0,0,1,.014-.517,13.822,13.822,0,0,1,2.234-2.3A1,1,0,0,1,15.543-387.662Zm2.172,3.065a1.086,1.086,0,0,1,.419,1.411,4.4,4.4,0,0,1-.691.8c-.426.412-.649.573-.831.6a1.062,1.062,0,0,1-.992-.272,1.19,1.19,0,0,1-.342-.831c.014-.049.042-.175.07-.286a2.587,2.587,0,0,1,.58-.761C16.709-384.75,17.163-384.918,17.715-384.6Z" transform="translate(-0.172 415.611)" fill="#414141"/>
      </g>
    </g>
  </g>
</svg>
